{
  "images" : [
    {
      "idiom" : "universal",
      "scale" : "1x",
      "filename" : "myTrip.png"
    },
    {
      "filename" : "myTrip@2x.png",
      "scale" : "2x",
      "idiom" : "universal"
    },
    {
      "scale" : "3x",
      "filename" : "myTrip@3x.png",
      "idiom" : "universal"
    }
  ],
  "info" : {
    "version" : 1,
    "author" : "xcode"
  }
}