{
  "images" : [
    {
      "filename" : "group577.png",
      "idiom" : "universal",
      "scale" : "1x"
    },
    {
      "scale" : "2x",
      "filename" : "group577@2x.png",
      "idiom" : "universal"
    },
    {
      "idiom" : "universal",
      "filename" : "group577@3x.png",
      "scale" : "3x"
    }
  ],
  "info" : {
    "version" : 1,
    "author" : "xcode"
  }
}